66
96
o area_light
v -0.884011 5.319334 -2.517968 0.0000 -1.0000 0.0008 1.0000 1.0000 1.0000 50.0000 50.0000 50.0000
v -0.884011 5.318497 -3.567968 0.0000 -1.0000 0.0008 1.0000 1.0000 1.0000 50.0000 50.0000 50.0000
v 0.415989 5.318497 -3.567968 0.0000 -1.0000 0.0008 1.0000 1.0000 1.0000 50.0000 50.0000 50.0000
v 0.415989 5.319334 -2.517968 0.0000 -1.0000 0.0008 1.0000 1.0000 1.0000 50.0000 50.0000 50.0000
f 1 3 0 
f 1 2 3
o back_wall
v -2.950011 -0.162686 -5.835598 0.0000 0.0008 1.0000 1.0000 1.0000 1.0000 0.0000 0.0000 0.0000 
v 2.545989 -0.162686 -5.835598 0.0000 0.0008 1.0000 1.0000 1.0000 1.0000 0.0000 0.0000 0.0000
v 2.545989 5.325313 -5.839967 0.0000 0.0008 1.0000 1.0000 1.0000 1.0000 0.0000 0.0000 0.0000
v -3.014011 5.325313 -5.839967 0.0000 0.0008 1.0000 1.0000 1.0000 1.0000 0.0000 0.0000 0.0000
f 4 6 7
f 4 5 6
o ceiling
v -3.014011 5.329765 -0.247969 0.0000 -1.0000 0.0008 1.0000 1.0000 1.0000 0.0000 0.0000 0.0000
v -3.014011 5.325313 -5.839968 0.0000 -1.0000 0.0008 1.0000 1.0000 1.0000 0.0000 0.0000 0.0000
v 2.545989 5.325313 -5.839968 0.0000 -1.0000 0.0008 1.0000 1.0000 1.0000 0.0000 0.0000 0.0000
v 2.545989 5.329765 -0.247969 0.0000 -1.0000 0.0008 1.0000 1.0000 1.0000 0.0000 0.0000 0.0000
f 9 11 8
f 9 10 11
o floor
v -2.982011 -0.158233 -0.243599 0.0000 1.0000 -0.0008 1.0000 1.0000 1.0000 0.0000 0.0000 0.0000
v 2.545989 -0.158233 -0.243599 0.0000 1.0000 -0.0008 1.0000 1.0000 1.0000 0.0000 0.0000 0.0000
v 2.545989 -0.162686 -5.835598 0.0000 1.0000 -0.0008 1.0000 1.0000 1.0000 0.0000 0.0000 0.0000
v -2.950011 -0.162686 -5.835598 0.0000 1.0000 -0.0008 1.0000 1.0000 1.0000 0.0000 0.0000 0.0000
f 13 15 12
f 13 14 15
o left_wall
v -2.982011 -0.158233 -0.243599 1.0000 0.0058 -0.0000 0.6992 0.0233 0.0233 0.0000 0.0000 0.0000
v -3.014011 5.325313 -5.839968 1.0000 0.0058 -0.0000 0.6992 0.0233 0.0233 0.0000 0.0000 0.0000
v -3.014011 5.329765 -0.247969 1.0000 0.0058 -0.0000 0.6992 0.0233 0.0233 0.0000 0.0000 0.0000
v -2.982011 -0.158233 -0.243599 0.9999 0.0117 0.0057 0.6992 0.0233 0.0233 0.0000 0.0000 0.0000
v -2.950011 -0.162686 -5.835598 0.9999 0.0117 0.0057 0.6992 0.0233 0.0233 0.0000 0.0000 0.0000
v -3.014011 5.325313 -5.839968 0.9999 0.0117 0.0057 0.6992 0.0233 0.0233 0.0000 0.0000 0.0000
f 16 17 18
f 19 20 21
o right_wall
v 2.545989 -0.162686 -5.835598 -1.0000 0.0000 0.0000 0.0233 0.6992 0.0233 0.0000 0.0000 0.0000
v 2.545989 -0.158233 -0.243599 -1.0000 0.0000 0.0000 0.0233 0.6992 0.0233 0.0000 0.0000 0.0000
v 2.545989 5.329765 -0.247969 -1.0000 0.0000 0.0000 0.0233 0.6992 0.0233 0.0000 0.0000 0.0000
v 2.545989 5.325313 -5.839968 -1.0000 0.0000 0.0000 0.0233 0.6992 0.0233 0.0000 0.0000 0.0000
f 23 25 22
f 23 24 25
o short_box
v 1.245989 1.491249 -0.894913 0.0000 1.0000 -0.0008 1.0000 1.0000 1.0000 0.0000 0.0000 0.0000
v 1.725989 1.489975 -2.494912 0.0000 1.0000 -0.0008 1.0000 1.0000 1.0000 0.0000 0.0000 0.0000
v 0.145989 1.489601 -2.964912 0.0000 1.0000 -0.0008 1.0000 1.0000 1.0000 0.0000 0.0000 0.0000
v -0.354011 1.490859 -1.384912 0.0000 1.0000 -0.0008 1.0000 1.0000 1.0000 0.0000 0.0000 0.0000
v -0.354011 -0.159141 -1.383599 -0.9534 -0.0002 -0.3017 1.0000 1.0000 1.0000 0.0000 0.0000 0.0000
v -0.354011 1.490859 -1.384912 -0.9534 -0.0002 -0.3017 1.0000 1.0000 1.0000 0.0000 0.0000 0.0000
v 0.145989 1.489601 -2.964912 -0.9534 -0.0002 -0.3017 1.0000 1.0000 1.0000 0.0000 0.0000 0.0000
v 0.145989 -0.160399 -2.963598 -0.9534 -0.0002 -0.3017 1.0000 1.0000 1.0000 0.0000 0.0000 0.0000
v 1.245989 -0.158750 -0.893599 -0.2928 0.0008 0.9562 1.0000 1.0000 1.0000 0.0000 0.0000 0.0000
v 1.245989 1.491249 -0.894913 -0.2928 0.0008 0.9562 1.0000 1.0000 1.0000 0.0000 0.0000 0.0000
v -0.354011 1.490859 -1.384912 -0.2928 0.0008 0.9562 1.0000 1.0000 1.0000 0.0000 0.0000 0.0000
v -0.354011 -0.159141 -1.383599 -0.2928 0.0008 0.9562 1.0000 1.0000 1.0000 0.0000 0.0000 0.0000
v 1.725989 -0.160024 -2.493598 0.9578 0.0002 0.2873 1.0000 1.0000 1.0000 0.0000 0.0000 0.0000
v 1.725989 1.489975 -2.494912 0.9578 0.0002 0.2873 1.0000 1.0000 1.0000 0.0000 0.0000 0.0000
v 1.245989 1.491249 -0.894913 0.9578 0.0002 0.2873 1.0000 1.0000 1.0000 0.0000 0.0000 0.0000
v 1.245989 -0.158750 -0.893599 0.9578 0.0002 0.2873 1.0000 1.0000 1.0000 0.0000 0.0000 0.0000
v 0.145989 -0.160399 -2.963598 0.2851 -0.0008 -0.9585 1.0000 1.0000 1.0000 0.0000 0.0000 0.0000
v 0.145989 1.489601 -2.964912 0.2851 -0.0008 -0.9585 1.0000 1.0000 1.0000 0.0000 0.0000 0.0000
v 1.725989 1.489975 -2.494912 0.2851 -0.0008 -0.9585 1.0000 1.0000 1.0000 0.0000 0.0000 0.0000
v 1.725989 -0.160024 -2.493598 0.2851 -0.0008 -0.9585 1.0000 1.0000 1.0000 0.0000 0.0000 0.0000
f 26 28 29
f 31 33 30
f 35 37 34
f 39 41 38
f 43 45 42
f 26 27 28
f 31 32 33
f 35 36 37
f 39 40 41
f 43 44 45
o tall_box
v -1.684011 3.139799 -2.716226 -0.0000 1.0000 -0.0008 1.0000 1.0000 1.0000 0.0000 0.0000 0.0000
v -0.104011 3.139409 -3.206226 -0.0000 1.0000 -0.0008 1.0000 1.0000 1.0000 0.0000 0.0000 0.0000
v -0.594011 3.138135 -4.806226 -0.0000 1.0000 -0.0008 1.0000 1.0000 1.0000 0.0000 0.0000 0.0000
v -2.174011 3.138533 -4.306226 -0.0000 1.0000 -0.0008 1.0000 1.0000 1.0000 0.0000 0.0000 0.0000
v -1.684011 -0.160200 -2.713598 -0.9556 0.0002 0.2945 1.0000 1.0000 1.0000 0.0000 0.0000 0.0000
v -1.684011 3.139799 -2.716226 -0.9556 0.0002 0.2945 1.0000 1.0000 1.0000 0.0000 0.0000 0.0000
v -2.174011 3.138533 -4.306226 -0.9556 0.0002 0.2945 1.0000 1.0000 1.0000 0.0000 0.0000 0.0000
v -2.174011 -0.161466 -4.303598 -0.9556 0.0002 0.2945 1.0000 1.0000 1.0000 0.0000 0.0000 0.0000
v -2.174011 -0.161466 -4.303598 -0.3017 -0.0008 -0.9534 1.0000 1.0000 1.0000 0.0000 0.0000 0.0000
v -2.174011 3.138533 -4.306226 -0.3017 -0.0008 -0.9534 1.0000 1.0000 1.0000 0.0000 0.0000 0.0000
v -0.594011 3.138135 -4.806226 -0.3017 -0.0008 -0.9534 1.0000 1.0000 1.0000 0.0000 0.0000 0.0000
v -0.594011 -0.161864 -4.803598 -0.3017 -0.0008 -0.9534 1.0000 1.0000 1.0000 0.0000 0.0000 0.0000
v -0.594011 -0.161864 -4.803598 0.9562 -0.0002 -0.2928 1.0000 1.0000 1.0000 0.0000 0.0000 0.0000
v -0.594011 3.138135 -4.806226 0.9562 -0.0002 -0.2928 1.0000 1.0000 1.0000 0.0000 0.0000 0.0000
v -0.104011 3.139409 -3.206226 0.9562 -0.0002 -0.2928 1.0000 1.0000 1.0000 0.0000 0.0000 0.0000
v -0.104011 -0.160590 -3.203598 0.9562 -0.0002 -0.2928 1.0000 1.0000 1.0000 0.0000 0.0000 0.0000
v -0.104011 -0.160590 -3.203598 0.2962 0.0008 0.9551 1.0000 1.0000 1.0000 0.0000 0.0000 0.0000
v -0.104011 3.139409 -3.206226 0.2962 0.0008 0.9551 1.0000 1.0000 1.0000 0.0000 0.0000 0.0000
v -1.684011 3.139799 -2.716226 0.2962 0.0008 0.9551 1.0000 1.0000 1.0000 0.0000 0.0000 0.0000
v -1.684011 -0.160200 -2.713598 0.2962 0.0008 0.9551 1.0000 1.0000 1.0000 0.0000 0.0000 0.0000
f 47 49 46
f 50 52 53
f 55 57 54
f 59 61 58
f 63 65 62
f 47 48 49
f 50 51 52
f 55 56 57
f 59 60 61
f 63 64 65